﻿{
  "version": "1.0.0-*",

  "dependencies": {
    "LendFoundry.Configuration.Client": "1.0.7-*",
    "LendFoundry.TemplateManager.Abstractions": "",
    "LendFoundry.Foundation.Date": "1.0.3-*",
    "LendFoundry.Foundation.Logging": "1.0.9-*",
    "LendFoundry.Foundation.Persistence": "1.0.1-*",
    "LendFoundry.Foundation.Persistence.Mongo": "1.0.1-*",
    "LendFoundry.Foundation.Services": "1.0.11-*",
    "LendFoundry.Security.Tokens": "1.0.7-*",
    "LendFoundry.Tenant.Abstractions": "1.0.0-*",
    "LendFoundry.Tenant.Client": "1.0.9-*",
    "Microsoft.Framework.DependencyInjection.Abstractions": "1.0.0-beta8",
    "MongoDB.Driver": "2.2.0"
  },

  "frameworks": {
    "dnx451": { }
  }
}
