﻿{
  "commands": {
    "kestrel": "Microsoft.AspNet.Hosting --server Microsoft.AspNet.Server.Kestrel --server.urls http://*:5000"
  },
  "dependencies": {
    "LendFoundry.Configuration.Client": "1.0.7-*",
    "LendFoundry.EventHub.Abstractions": "2.0.0-*",
    "LendFoundry.EventHub.Client": "2.0.1-*",
    "LendFoundry.Foundation.Date": "1.0.3-*",
    "LendFoundry.Foundation.Documentation": "1.0.0-*",
    "LendFoundry.Foundation.Logging": "1.0.9-*",
    "LendFoundry.Foundation.Persistence": "1.0.1-*",
    "LendFoundry.Foundation.Persistence.Mongo": "1.0.1-*",
    "LendFoundry.Foundation.Services": "1.0.11-*",
    "LendFoundry.Security.Client": "1.0.0-*",
    "LendFoundry.Security.Identity.Abstractions": "1.0.0-*",
    "LendFoundry.Security.Tokens": "1.0.7-*",
    "LendFoundry.TemplateManager": "",
    "LendFoundry.TemplateManager.Abstractions": "",
    "LendFoundry.TemplateManager.Persistence": "",
    "LendFoundry.Tenant.Abstractions": "1.0.0-*",
    "LendFoundry.Tenant.Client": "1.0.9-*",
    "Microsoft.AspNet.Cors": "6.0.0-beta8",
    "Microsoft.AspNet.Hosting": "1.0.0-beta8",
    "Microsoft.AspNet.Hosting.Abstractions": "1.0.0-beta8",
    "Microsoft.AspNet.Http": "1.0.0-beta8",
    "Microsoft.AspNet.Http.Abstractions": "1.0.0-beta8",
    "Microsoft.AspNet.Mvc": "6.0.0-beta8",
    "Microsoft.AspNet.Server.Kestrel": "1.0.0-beta8",
    "Microsoft.AspNet.WebApi.Client": "5.2.3",
    "Microsoft.CSharp": "4.0.0",
    "Microsoft.Framework.DependencyInjection.Abstractions": "1.0.0-beta8"
  },
  "frameworks": {
    "dnx451": { }
  },
  "version": "1.0.0"
}